fibonacci/cpubench.vcd
$date
  Tue Jan  1 15:45:35 2019
$end
$version
  GHDL v0
$end
$timescale
  1 fs
$end
$scope module standard $end
$upscope $end
$scope module std_logic_1164 $end
$upscope $end
$scope module numeric_std $end
$upscope $end
$scope module std_logic_arith $end
$upscope $end
$scope module std_logic_unsigned $end
$upscope $end
$scope module textio $end
$upscope $end
$scope module altera_common_conversion $end
$upscope $end
$scope module altera_device_families $end
$upscope $end
$scope module cpubench $end
$var reg 8 ! iport[7:0] $end
$var reg 16 " oport[15:0] $end
$var reg 8 # pc[7:0] $end
$var reg 16 $ ir[15:0] $end
$var reg 16 % ra[15:0] $end
$var reg 16 & rb[15:0] $end
$var reg 16 ' rc[15:0] $end
$var reg 16 ( rd[15:0] $end
$var reg 16 ) re[15:0] $end
$var reg 1 * clk $end
$var reg 1 + reset $end
$scope module cpuinstance $end
$var reg 1 , clk $end
$var reg 1 - reset $end
$var reg 8 . pcview[7:0] $end
$var reg 16 / irview[15:0] $end
$var reg 16 0 raview[15:0] $end
$var reg 16 1 rbview[15:0] $end
$var reg 16 2 rcview[15:0] $end
$var reg 16 3 rdview[15:0] $end
$var reg 16 4 review[15:0] $end
$var reg 8 5 iport[7:0] $end
$var reg 16 6 oport[15:0] $end
$var reg 3 7 counter[2:0] $end
$var reg 16 8 ra[15:0] $end
$var reg 16 9 rb[15:0] $end
$var reg 16 : rc[15:0] $end
$var reg 16 ; rd[15:0] $end
$var reg 16 < re[15:0] $end
$var reg 16 = ir[15:0] $end
$var reg 8 > pc[7:0] $end
$var reg 16 ? mbr[15:0] $end
$var reg 16 @ stack_ptr[15:0] $end
$var reg 8 A mar[7:0] $end
$var reg 4 B cr[3:0] $end
$var reg 16 C alu1[15:0] $end
$var reg 16 D alu2[15:0] $end
$var reg 16 E alu_out[15:0] $end
$var reg 16 F outreg[15:0] $end
$var reg 16 G romout[15:0] $end
$var reg 16 H ramout[15:0] $end
$var reg 1 I ram_we $end
$var reg 3 J alu_op[2:0] $end
$var reg 4 K alu_cr[3:0] $end
$var reg 4 L state[3:0] $end
$scope module prom $end
$var reg 8 M address[7:0] $end
$var reg 1 N clock $end
$var reg 16 O q[15:0] $end
$var reg 16 P sub_wire0[15:0] $end
$scope module altsyncram_component $end
$var reg 1 Q wren_a $end
$var reg 1 R wren_b $end
$var reg 1 S rden_a $end
$var reg 1 T rden_b $end
$var reg 16 U data_a[15:0] $end
$var reg 1 V data_b[0:0] $end
$var reg 8 W address_a[7:0] $end
$var reg 1 X address_b[0:0] $end
$var reg 1 Y clock0 $end
$var reg 1 Z clock1 $end
$var reg 1 [ clocken0 $end
$var reg 1 \ clocken1 $end
$var reg 1 ] clocken2 $end
$var reg 1 ^ clocken3 $end
$var reg 1 _ aclr0 $end
$var reg 1 ` aclr1 $end
$var reg 1 a addressstall_a $end
$var reg 1 b addressstall_b $end
$var reg 1 c byteena_a[0:0] $end
$var reg 1 d byteena_b[0:0] $end
$var reg 16 e q_a[15:0] $end
$var reg 1 f q_b[0:0] $end
$var reg 3 g eccstatus[2:0] $end
$var reg 16 h i_data_reg_a[15:0] $end
$var reg 1 i i_data_reg_b[0:0] $end
$var reg 16 j i_q_reg_a[15:0] $end
$var reg 16 k i_q_tmp_a[15:0] $end
$var reg 16 l i_q_tmp2_a[15:0] $end
$var reg 16 m i_q_tmp_wren_a[15:0] $end
$var reg 16 n i_q_tmp2_wren_a[15:0] $end
$var reg 1 o i_q_tmp_wren_b[0:0] $end
$var reg 1 p i_q_reg_b[0:0] $end
$var reg 1 q i_q_tmp_b[0:0] $end
$var reg 1 r i_q_tmp2_b[0:0] $end
$var reg 1 s i_q_output_latch[0:0] $end
$var reg 1 t i_q_ecc_reg_b[0:0] $end
$var reg 1 u i_q_ecc_tmp_b[0:0] $end
$var reg 16 v i_current_written_data_a[15:0] $end
$var reg 16 w i_original_data_a[15:0] $end
$var reg 1 x i_original_data_b[0:0] $end
$var reg 16 y i_byteena_mask_reg_a_x[15:0] $end
$var reg 1 z i_byteena_mask_reg_b_x[0:0] $end
$var reg 16 { i_byteena_mask_reg_a[15:0] $end
$var reg 1 | i_byteena_mask_reg_b[0:0] $end
$var reg 16 } i_byteena_mask_reg_a_out[15:0] $end
$var reg 1 !" i_byteena_mask_reg_b_out[0:0] $end
$var reg 16 "" i_byteena_mask_reg_a_out_b[15:0] $end
$var reg 1 #" i_byteena_mask_reg_b_out_a[0:0] $end
$var reg 8 $" i_address_reg_a[7:0] $end
$var reg 1 %" i_address_reg_b[0:0] $end
$var reg 1 &" i_wren_reg_a $end
$var reg 1 '" i_wren_reg_b $end
$var reg 1 (" i_rden_reg_a $end
$var reg 1 )" i_rden_reg_b $end
$var reg 1 *" i_read_flag_a $end
$var reg 1 +" i_read_flag_b $end
$var reg 1 ," i_reread_flag_a $end
$var reg 1 -" i_reread_flag_b $end
$var reg 1 ." i_reread_flag2_a $end
$var reg 1 /" i_reread_flag2_b $end
$var reg 1 0" i_write_flag_a $end
$var reg 1 1" i_write_flag_b $end
$var reg 1 2" i_nmram_write_a $end
$var reg 1 3" i_nmram_write_b $end
$var reg 1 4" i_indata_aclr_a $end
$var reg 1 5" i_address_aclr_a $end
$var reg 1 6" i_wrcontrol_aclr_a $end
$var reg 1 7" i_indata_aclr_b $end
$var reg 1 8" i_address_aclr_b $end
$var reg 1 9" i_wrcontrol_aclr_b $end
$var reg 1 :" i_outdata_aclr_a $end
$var reg 1 ;" i_outdata_aclr_b $end
$var reg 1 <" i_rdcontrol_aclr_b $end
$var reg 1 =" i_byteena_aclr_a $end
$var reg 1 >" i_byteena_aclr_b $end
$var reg 1 ?" good_to_go_a $end
$var reg 1 @" good_to_go_b $end
$var reg 1 A" i_core_clocken_a $end
$var reg 1 B" i_core_clocken_b $end
$var reg 1 C" i_core_clocken_b0 $end
$var reg 1 D" i_core_clocken_b1 $end
$var reg 1 E" i_inclocken0 $end
$var reg 1 F" i_input_clocken_b $end
$var reg 1 G" i_outdata_clken_b $end
$var reg 1 H" i_outdata_clken_a $end
$var reg 1 I" i_outlatch_clken_a $end
$var reg 1 J" i_outlatch_clken_b $end
$var reg 1 K" i_core_clocken_a_reg $end
$var reg 1 L" i_core_clocken_b_reg $end
$var reg 1 M" default_val $end
$var reg 16 N" i_data_zero_a[15:0] $end
$var reg 1 O" i_data_zero_b[0:0] $end
$var reg 16 P" i_data_ones_a[15:0] $end
$var reg 1 Q" i_data_ones_b[0:0] $end
$var reg 1 R" same_clock_pulse0 $end
$var reg 1 S" same_clock_pulse1 $end
$var reg 1 T" i_force_reread_a $end
$var reg 1 U" i_force_reread_a1 $end
$var reg 1 V" i_force_reread_b $end
$var reg 1 W" i_force_reread_b1 $end
$var reg 1 X" i_force_reread_signal_a $end
$var reg 1 Y" i_force_reread_signal_b $end
$var reg 1 Z" i_good_to_write_a $end
$var reg 1 [" i_good_to_write_b $end
$scope module ifg02 $end
$upscope $end
$scope module ifg03a $end
$upscope $end
$scope module ifg15 $end
$upscope $end
$scope module ifg172a $end
$upscope $end
$scope module ifg50e $end
$upscope $end
$scope module ifg51a $end
$upscope $end
$scope module ifg52b $end
$upscope $end
$scope module ifg52 $end
$upscope $end
$scope module ifg57 $end
$upscope $end
$upscope $end
$upscope $end
$scope module dram $end
$var reg 8 \" address[7:0] $end
$var reg 1 ]" clock $end
$var reg 16 ^" data[15:0] $end
$var reg 1 _" wren $end
$var reg 16 `" q[15:0] $end
$var reg 16 a" sub_wire0[15:0] $end
$scope module altsyncram_component $end
$var reg 1 b" wren_a $end
$var reg 1 c" wren_b $end
$var reg 1 d" rden_a $end
$var reg 1 e" rden_b $end
$var reg 16 f" data_a[15:0] $end
$var reg 1 g" data_b[0:0] $end
$var reg 8 h" address_a[7:0] $end
$var reg 1 i" address_b[0:0] $end
$var reg 1 j" clock0 $end
$var reg 1 k" clock1 $end
$var reg 1 l" clocken0 $end
$var reg 1 m" clocken1 $end
$var reg 1 n" clocken2 $end
$var reg 1 o" clocken3 $end
$var reg 1 p" aclr0 $end
$var reg 1 q" aclr1 $end
$var reg 1 r" addressstall_a $end
$var reg 1 s" addressstall_b $end
$var reg 1 t" byteena_a[0:0] $end
$var reg 1 u" byteena_b[0:0] $end
$var reg 16 v" q_a[15:0] $end
$var reg 1 w" q_b[0:0] $end
$var reg 3 x" eccstatus[2:0] $end
$var reg 16 y" i_data_reg_a[15:0] $end
$var reg 1 z" i_data_reg_b[0:0] $end
$var reg 16 {" i_q_reg_a[15:0] $end
$var reg 16 |" i_q_tmp_a[15:0] $end
$var reg 16 }" i_q_tmp2_a[15:0] $end
$var reg 16 !# i_q_tmp_wren_a[15:0] $end
$var reg 16 "# i_q_tmp2_wren_a[15:0] $end
$var reg 1 ## i_q_tmp_wren_b[0:0] $end
$var reg 1 $# i_q_reg_b[0:0] $end
$var reg 1 %# i_q_tmp_b[0:0] $end
$var reg 1 &# i_q_tmp2_b[0:0] $end
$var reg 1 '# i_q_output_latch[0:0] $end
$var reg 1 (# i_q_ecc_reg_b[0:0] $end
$var reg 1 )# i_q_ecc_tmp_b[0:0] $end
$var reg 16 *# i_current_written_data_a[15:0] $end
$var reg 16 +# i_original_data_a[15:0] $end
$var reg 1 ,# i_original_data_b[0:0] $end
$var reg 16 -# i_byteena_mask_reg_a_x[15:0] $end
$var reg 1 .# i_byteena_mask_reg_b_x[0:0] $end
$var reg 16 /# i_byteena_mask_reg_a[15:0] $end
$var reg 1 0# i_byteena_mask_reg_b[0:0] $end
$var reg 16 1# i_byteena_mask_reg_a_out[15:0] $end
$var reg 1 2# i_byteena_mask_reg_b_out[0:0] $end
$var reg 16 3# i_byteena_mask_reg_a_out_b[15:0] $end
$var reg 1 4# i_byteena_mask_reg_b_out_a[0:0] $end
$var reg 8 5# i_address_reg_a[7:0] $end
$var reg 1 6# i_address_reg_b[0:0] $end
$var reg 1 7# i_wren_reg_a $end
$var reg 1 8# i_wren_reg_b $end
$var reg 1 9# i_rden_reg_a $end
$var reg 1 :# i_rden_reg_b $end
$var reg 1 ;# i_read_flag_a $end
$var reg 1 <# i_read_flag_b $end
$var reg 1 =# i_reread_flag_a $end
$var reg 1 ># i_reread_flag_b $end
$var reg 1 ?# i_reread_flag2_a $end
$var reg 1 @# i_reread_flag2_b $end
$var reg 1 A# i_write_flag_a $end
$var reg 1 B# i_write_flag_b $end
$var reg 1 C# i_nmram_write_a $end
$var reg 1 D# i_nmram_write_b $end
$var reg 1 E# i_indata_aclr_a $end
$var reg 1 F# i_address_aclr_a $end
$var reg 1 G# i_wrcontrol_aclr_a $end
$var reg 1 H# i_indata_aclr_b $end
$var reg 1 I# i_address_aclr_b $end
$var reg 1 J# i_wrcontrol_aclr_b $end
$var reg 1 K# i_outdata_aclr_a $end
$var reg 1 L# i_outdata_aclr_b $end
$var reg 1 M# i_rdcontrol_aclr_b $end
$var reg 1 N# i_byteena_aclr_a $end
$var reg 1 O# i_byteena_aclr_b $end
$var reg 1 P# good_to_go_a $end
$var reg 1 Q# good_to_go_b $end
$var reg 1 R# i_core_clocken_a $end
$var reg 1 S# i_core_clocken_b $end
$var reg 1 T# i_core_clocken_b0 $end
$var reg 1 U# i_core_clocken_b1 $end
$var reg 1 V# i_inclocken0 $end
$var reg 1 W# i_input_clocken_b $end
$var reg 1 X# i_outdata_clken_b $end
$var reg 1 Y# i_outdata_clken_a $end
$var reg 1 Z# i_outlatch_clken_a $end
$var reg 1 [# i_outlatch_clken_b $end
$var reg 1 \# i_core_clocken_a_reg $end
$var reg 1 ]# i_core_clocken_b_reg $end
$var reg 1 ^# default_val $end
$var reg 16 _# i_data_zero_a[15:0] $end
$var reg 1 `# i_data_zero_b[0:0] $end
$var reg 16 a# i_data_ones_a[15:0] $end
$var reg 1 b# i_data_ones_b[0:0] $end
$var reg 1 c# same_clock_pulse0 $end
$var reg 1 d# same_clock_pulse1 $end
$var reg 1 e# i_force_reread_a $end
$var reg 1 f# i_force_reread_a1 $end
$var reg 1 g# i_force_reread_b $end
$var reg 1 h# i_force_reread_b1 $end
$var reg 1 i# i_force_reread_signal_a $end
$var reg 1 j# i_force_reread_signal_b $end
$var reg 1 k# i_good_to_write_a $end
$var reg 1 l# i_good_to_write_b $end
$scope module ifg02 $end
$upscope $end
$scope module ifg03a $end
$upscope $end
$scope module ifg15 $end
$upscope $end
$scope module ifg172a $end
$upscope $end
$scope module ifg50e $end
$upscope $end
$scope module ifg51a $end
$upscope $end
$scope module ifg52b $end
$upscope $end
$scope module ifg52 $end
$upscope $end
$scope module ifg57 $end
$upscope $end
$upscope $end
$upscope $end
$scope module calu $end
$var reg 16 m# srca[15:0] $end
$var reg 16 n# srcb[15:0] $end
$var reg 3 o# op[2:0] $end
$var reg 4 p# cr[3:0] $end
$var reg 16 q# dest[15:0] $end
$var reg 17 r# tdest[16:0] $end
$upscope $end
$upscope $end
$upscope $end
$enddefinitions $end
#0
b00000000 !
b0000000000000000 "
b00000000 #
b0000000000000000 $
b0000000000000000 %
b0000000000000000 &
b0000000000000000 '
b0000000000000000 (
b0000000000000000 )
0*
0+
0,
0-
b00000000 .
b0000000000000000 /
b0000000000000000 0
b0000000000000000 1
b0000000000000000 2
b0000000000000000 3
b0000000000000000 4
b00000000 5
b0000000000000000 6
b000 7
b0000000000000000 8
b0000000000000000 9
b0000000000000000 :
b0000000000000000 ;
b0000000000000000 <
b0000000000000000 =
b00000000 >
b0000000000000000 ?
b0000000000000000 @
b00000000 A
b0000 B
bUUUUUUUUUUUUUUUU C
bUUUUUUUUUUUUUUUU D
bUUUUUUUUUUUUUUUU E
b0000000000000000 F
b0000000000000000 G
b0000000000000000 H
UI
bUUU J
bUU00 K
b0000 L
b00000000 M
0N
b0000000000000000 O
b0000000000000000 P
0Q
0R
1S
1T
b1111111111111111 U
b1 V
b00000000 W
b1 X
0Y
ZZ
1[
1\
1]
1^
0_
0`
0a
0b
b1 c
bZ d
b0000000000000000 e
b0 f
b000 g
b0000000000000000 h
b0 i
b0000000000000000 j
b0000000000000000 k
b0000000000000000 l
b0000000000000000 m
b0000000000000000 n
b0 o
b0 p
b0 q
b0 r
b0 s
b0 t
b0 u
b0000000000000000 v
b0000000000000000 w
b0 x
b0000000000000000 y
b0 z
b1111111111111111 {
b1 |
b1111111111111111 }
b1 !"
b1111111111111111 ""
b1 #"
b00000000 $"
b0 %"
0&"
0'"
1("
1)"
0*"
0+"
0,"
0-"
0."
0/"
00"
01"
02"
03"
04"
05"
06"
07"
08"
09"
0:"
0;"
0<"
0="
0>"
0?"
0@"
1A"
1B"
1C"
1D"
1E"
1F"
0G"
1H"
1I"
1J"
0K"
0L"
0M"
b0000000000000000 N"
b0 O"
b1111111111111111 P"
b1 Q"
0R"
0S"
0T"
0U"
0V"
0W"
0X"
0Y"
1Z"
1["
b00000000 \"
0]"
b0000000000000000 ^"
U_"
b0000000000000000 `"
b0000000000000000 a"
Ub"
0c"
1d"
1e"
b0000000000000000 f"
b1 g"
b00000000 h"
b1 i"
0j"
Zk"
1l"
1m"
1n"
1o"
0p"
0q"
0r"
0s"
b1 t"
bZ u"
b0000000000000000 v"
b0 w"
b000 x"
b0000000000000000 y"
b0 z"
b0000000000000000 {"
b0000000000000000 |"
b0000000000000000 }"
b0000000000000000 !#
b0000000000000000 "#
b0 ##
b0 $#
b0 %#
b0 &#
b0 '#
b0 (#
b0 )#
b0000000000000000 *#
b0000000000000000 +#
b0 ,#
b0000000000000000 -#
b0 .#
b1111111111111111 /#
b1 0#
b1111111111111111 1#
b1 2#
b1111111111111111 3#
b1 4#
b00000000 5#
b0 6#
07#
08#
19#
1:#
0;#
0<#
0=#
0>#
0?#
0@#
0A#
0B#
0C#
0D#
0E#
0F#
0G#
0H#
0I#
0J#
0K#
0L#
0M#
0N#
0O#
0P#
0Q#
1R#
1S#
1T#
1U#
1V#
1W#
0X#
1Y#
1Z#
1[#
0\#
0]#
0^#
b0000000000000000 _#
b0 `#
b1111111111111111 a#
b1 b#
0c#
0d#
0e#
0f#
0g#
0h#
0i#
0j#
1k#
1l#
bUUUUUUUUUUUUUUUU m#
bUUUUUUUUUUUUUUUU n#
bUUU o#
bUU00 p#
bUUUUUUUUUUUUUUUU q#
bUUUUUUUUUUUUUUUUU r#
#1000000
1*
1+
1,
1-
b001 7
1N
1Y
b1111111111111111 h
b1111100000000000 k
b1111100000000000 l
b0000000000000000 }
bXXXXXXXXXXXXXXXX ""
1*"
1?"
1K"
1]"
1j"
b0000000000000001 |"
b0000000000000001 }"
b0000000000000000 1#
bXXXXXXXXXXXXXXXX 3#
U7#
1;#
1C#
1P#
1\#
#2000000
0*
0,
0N
0Y
0]"
0j"
b0000000000000001 *#
b0000000000000001 +#
1A#
#3000000
1*
1,
b010 7
b1111100000000000 G
b0000000000000001 H
1N
b1111100000000000 O
b1111100000000000 P
1Y
b1111100000000000 e
b1111100000000000 j
0*"
1]"
b0000000000000001 `"
b0000000000000001 a"
1j"
b0000000000000001 v"
b0000000000000001 {"
0;#
#4000000
0*
0,
0N
0Y
0]"
0j"
0A#
#5000000
1*
1,
b011 7
1N
1Y
1*"
1]"
1j"
1;#
#6000000
0*
0,
0N
0Y
0]"
0j"
1A#
#7000000
1*
1,
b100 7
1N
1Y
0*"
1]"
1j"
0;#
#8000000
0*
0,
0N
0Y
0]"
0j"
0A#
#9000000
1*
1,
b101 7
1N
1Y
1*"
1]"
1j"
1;#
#10000000
0*
0,
0N
0Y
0]"
0j"
1A#
#11000000
1*
1,
b110 7
1N
1Y
0*"
1]"
1j"
0;#
#12000000
0*
0,
0N
0Y
0]"
0j"
0A#
#13000000
1*
1,
b111 7
1N
1Y
1*"
1]"
1j"
1;#
#14000000
0*
0,
0N
0Y
0]"
0j"
1A#
#15000000
1*
1,
b0001 L
1N
1Y
0*"
1]"
1j"
0;#
#16000000
0*
0,
0N
0Y
0]"
0j"
0A#
#17000000
b00000001 #
b1111100000000000 $
1*
1,
b00000001 .
b1111100000000000 /
b1111100000000000 =
b00000001 >
b0010 L
b00000001 M
1N
b00000001 W
1Y
1*"
1]"
1j"
1;#
#18000000
0*
0,
0N
0Y
0]"
0j"
1A#
#19000000
1*
1,
b0000000000000000 C
b0000000000000000 E
b111 J
b0001 K
b0011 L
1N
1Y
b1111100000001001 k
b1111100000001001 l
b00000001 $"
0*"
1]"
1j"
0;#
b0000000000000000 m#
b111 o#
b0001 p#
b0000000000000000 q#
b00000000000000000 r#
#20000000
0*
0,
0N
0Y
0]"
0j"
0A#
#21000000
1*
1,
b1111100000001001 G
0I
b0100 L
1N
b1111100000001001 O
b1111100000001001 P
1Y
b1111100000001001 e
b1111100000001001 j
1*"
1]"
0_"
0b"
1j"
1;#
#22000000
0*
0,
0N
0Y
0]"
0j"
1A#
#23000000
1*
1,
b0101 L
1N
1Y
0*"
1]"
1j"
07#
0;#
#24000000
0*
0,
0N
0Y
0]"
0j"
0A#
#25000000
1*
1,
b0001 B
b0110 L
1N
1Y
1*"
1]"
1j"
1;#
#26000000
0*
0,
0N
0Y
0]"
0j"
1A#
#27000000
1*
1,
b0111 L
1N
1Y
0*"
1]"
1j"
0;#
#28000000
0*
0,
0N
0Y
0]"
0j"
0A#
#29000000
1*
1,
b1000 L
1N
1Y
1*"
1]"
1j"
1;#
#30000000
0*
0,
0N
0Y
0]"
0j"
1A#
#31000000
1*
1,
b0001 L
1N
1Y
0*"
1]"
1j"
0;#
#32000000
0*
0,
0N
0Y
0]"
0j"
0A#
#33000000
b00000010 #
b1111100000001001 $
1*
1,
b00000010 .
b1111100000001001 /
b1111100000001001 =
b00000010 >
b0010 L
b00000010 M
1N
b00000010 W
1Y
1*"
1]"
1j"
1;#
#34000000
0*
0,
0N
0Y
0]"
0j"
1A#
#35000000
1*
1,
b0000000000000001 C
b0000000000000001 E
b0000 K
b0011 L
1N
1Y
b1111100000001010 k
b1111100000001010 l
b00000010 $"
0*"
1]"
1j"
0;#
b0000000000000001 m#
b0000 p#
b0000000000000001 q#
b00000000000000001 r#
#36000000
0*
0,
0N
0Y
0]"
0j"
0A#
#37000000
1*
1,
b1111100000001010 G
b0100 L
1N
b1111100000001010 O
b1111100000001010 P
1Y
b1111100000001010 e
b1111100000001010 j
1*"
1]"
1j"
1;#
#38000000
0*
0,
0N
0Y
0]"
0j"
1A#
#39000000
1*
1,
b0101 L
1N
1Y
0*"
1]"
1j"
0;#
#40000000
0*
0,
0N
0Y
0]"
0j"
0A#
#41000000
b0000000000000001 &
1*
1,
b0000000000000001 1
b0000000000000001 9
b0000 B
b0110 L
1N
1Y
1*"
1]"
1j"
1;#
#42000000
0*
0,
0N
0Y
0]"
0j"
1A#
#43000000
1*
1,
b0111 L
1N
1Y
0*"
1]"
1j"
0;#
#44000000
0*
0,
0N
0Y
0]"
0j"
0A#
#45000000
1*
1,
b1000 L
1N
1Y
1*"
1]"
1j"
1;#
#46000000
0*
0,
0N
0Y
0]"
0j"
1A#
#47000000
1*
1,
b0001 L
1N
1Y
0*"
1]"
1j"
0;#
#48000000
0*
0,
0N
0Y
0]"
0j"
0A#
#49000000
b00000011 #
b1111100000001010 $
1*
1,
b00000011 .
b1111100000001010 /
b1111100000001010 =
b00000011 >
b0010 L
b00000011 M
1N
b00000011 W
1Y
1*"
1]"
1j"
1;#
#50000000
0*
0,
0N
0Y
0]"
0j"
1A#
#51000000
1*
1,
b0011 L
1N
1Y
b1000000001000000 k
b1000000001000000 l
b00000011 $"
0*"
1]"
1j"
0;#
#52000000
0*
0,
0N
0Y
0]"
0j"
0A#
#53000000
1*
1,
b1000000001000000 G
b0100 L
1N
b1000000001000000 O
b1000000001000000 P
1Y
b1000000001000000 e
b1000000001000000 j
1*"
1]"
1j"
1;#
#54000000
0*
0,
0N
0Y
0]"
0j"
1A#
#55000000
1*
1,
b0101 L
1N
1Y
0*"
1]"
1j"
0;#
#56000000
0*
0,
0N
0Y
0]"
0j"
0A#
#57000000
b0000000000000001 '
1*
1,
b0000000000000001 2
b0000000000000001 :
b0110 L
1N
1Y
1*"
1]"
1j"
1;#
#58000000
0*
0,
0N
0Y
0]"
0j"
1A#
#59000000
1*
1,
b0111 L
1N
1Y
0*"
1]"
1j"
0;#
#60000000
0*
0,
0N
0Y
0]"
0j"
0A#
#61000000
1*
1,
b1000 L
1N
1Y
1*"
1]"
1j"
1;#
#62000000
0*
0,
0N
0Y
0]"
0j"
1A#
#63000000
1*
1,
b0001 L
1N
1Y
0*"
1]"
1j"
0;#
#64000000
0*
0,
0N
0Y
0]"
0j"
0A#
#65000000
b00000100 #
b1000000001000000 $
1*
1,
b00000100 .
b1000000001000000 /
b1000000001000000 =
b00000100 >
b0010 L
b00000100 M
1N
b00000100 W
1Y
1*"
1]"
1j"
1;#
#66000000
0*
0,
0N
0Y
0]"
0j"
1A#
#67000000
1*
1,
b0000000000000000 C
b0000000000000000 D
b0000000000000000 E
b000 J
b0001 K
b0011 L
1N
1Y
b0011000100000111 k
b0011000100000111 l
b00000100 $"
0*"
1]"
1j"
0;#
b0000000000000000 m#
b0000000000000000 n#
b000 o#
b0001 p#
b0000000000000000 q#
b00000000000000000 r#
#68000000
0*
0,
0N
0Y
0]"
0j"
0A#
#69000000
1*
1,
b0011000100000111 G
b0100 L
1N
b0011000100000111 O
b0011000100000111 P
1Y
b0011000100000111 e
b0011000100000111 j
1*"
1]"
1j"
1;#
#70000000
0*
0,
0N
0Y
0]"
0j"
1A#
#71000000
1*
1,
b0101 L
1N
1Y
0*"
1]"
1j"
0;#
#72000000
0*
0,
0N
0Y
0]"
0j"
0A#
#73000000
1*
1,
b0001 B
b0110 L
1N
1Y
1*"
1]"
1j"
1;#
#74000000
0*
0,
0N
0Y
0]"
0j"
1A#
#75000000
1*
1,
b0111 L
1N
1Y
0*"
1]"
1j"
0;#
#76000000
0*
0,
0N
0Y
0]"
0j"
0A#
#77000000
1*
1,
b1000 L
1N
1Y
1*"
1]"
1j"
1;#
#78000000
0*
0,
0N
0Y
0]"
0j"
1A#
#79000000
1*
1,
b0001 L
1N
1Y
0*"
1]"
1j"
0;#
#80000000
0*
0,
0N
0Y
0]"
0j"
0A#
#81000000
b00000101 #
b0011000100000111 $
1*
1,
b00000101 .
b0011000100000111 /
b0011000100000111 =
b00000101 >
b0010 L
b00000101 M
1N
b00000101 W
1Y
1*"
1]"
1j"
1;#
#82000000
0*
0,
0N
0Y
0]"
0j"
1A#
#83000000
b00000111 #
1*
1,
b00000111 .
b00000111 >
b011 J
b0011 L
b00000111 M
1N
b00000111 W
1Y
b0110000000000000 k
b0110000000000000 l
b00000101 $"
0*"
1]"
1j"
0;#
b011 o#
b0000000000000000 q#
#84000000
0*
0,
0N
0Y
0]"
0j"
0A#
#85000000
1*
1,
b0110000000000000 G
1I
b0100 L
1N
b0110000000000000 O
b0110000000000000 P
1Y
b0110000000000000 e
b0110000000000000 j
b0011100000000000 k
b0011100000000000 l
b00000111 $"
1*"
1]"
1_"
1b"
1j"
1;#
#86000000
0*
0,
0N
0Y
0]"
0j"
1A#
#87000000
1*
1,
b0011100000000000 G
b0101 L
1N
b0011100000000000 O
b0011100000000000 P
1Y
b0011100000000000 e
b0011100000000000 j
0*"
1]"
1j"
b0000000000000000 |"
b0000000000000000 }"
17#
0;#
#88000000
0*
0,
0N
0Y
0]"
0j"
b0000000000000000 *#
0A#
#89000000
1*
1,
b0000000000000000 H
0I
b0110 L
1N
1Y
1*"
1]"
0_"
b0000000000000000 `"
b0000000000000000 a"
0b"
1j"
b0000000000000000 v"
b0000000000000000 {"
1;#
#90000000
0*
0,
0N
0Y
0]"
0j"
b0000000000000000 +#
1A#
#91000000
1*
1,
b0111 L
1N
1Y
0*"
1]"
1j"
07#
0;#
#92000000
0*
0,
0N
0Y
0]"
0j"
0A#
#93000000
1*
1,
b1000 L
1N
1Y
1*"
1]"
1j"
1;#
#94000000
0*
0,
0N
0Y
0]"
0j"
1A#
#95000000
1*
1,
b0001 L
1N
1Y
0*"
1]"
1j"
0;#
#96000000
0*
0,
0N
0Y
0]"
0j"
0A#
#97000000
b00001000 #
b0011100000000000 $
1*
1,
b00001000 .
b0011100000000000 /
b0011100000000000 =
b00001000 >
b0010 L
b00001000 M
1N
b00001000 W
1Y
1*"
1]"
1j"
1;#
#98000000
0*
0,
0N
0Y
0]"
0j"
1A#
#99000000
1*
1,
b1111111111111111 @
b0011 L
1N
1Y
b0011110000000000 k
b0011110000000000 l
b00001000 $"
0*"
1]"
1j"
0;#
#100000000
0*
0,
0N
0Y
0]"
0j"
0A#
#101000000
1*
1,
b0011110000000000 G
1I
b0100 L
1N
b0011110000000000 O
b0011110000000000 P
1Y
b0011110000000000 e
b0011110000000000 j
1*"
1]"
1_"
1b"
1j"
1;#
#102000000
0*
0,
0N
0Y
0]"
0j"
1A#
#103000000
1*
1,
b0101 L
1N
1Y
0*"
1]"
1j"
17#
0;#
#104000000
0*
0,
0N
0Y
0]"
0j"
0A#
#105000000
b00000000 #
1*
1,
b00000000 .
b00000000 >
b0000 B
0I
b0110 L
b00000000 M
1N
b00000000 W
1Y
1*"
1]"
0_"
0b"
1j"
1;#
#106000000
0*
0,
0N
0Y
0]"
0j"
1A#
#107000000
1*
1,
b0111 L
1N
1Y
b1111100000000000 k
b1111100000000000 l
b00000000 $"
0*"
1]"
1j"
07#
0;#
#108000000
0*
0,
0N
0Y
0]"
0j"
0A#
#109000000
1*
1,
b1111100000000000 G
b1000 L
1N
b1111100000000000 O
b1111100000000000 P
1Y
b1111100000000000 e
b1111100000000000 j
1*"
1]"
1j"
1;#
#110000000
0*
0,
0N
0Y
0]"
0j"
1A#
#111000000
1*
1,
b0001 L
1N
1Y
0*"
1]"
1j"
0;#
#112000000
0*
0,
0N
0Y
0]"
0j"
0A#
#113000000
b00000001 #
b1111100000000000 $
1*
1,
b00000001 .
b1111100000000000 /
b1111100000000000 =
b00000001 >
b0010 L
b00000001 M
1N
b00000001 W
1Y
1*"
1]"
1j"
1;#
#114000000
0*
0,
0N
0Y
0]"
0j"
1A#
#115000000
1*
1,
b111 J
b0011 L
1N
1Y
b1111100000001001 k
b1111100000001001 l
b00000001 $"
0*"
1]"
1j"
0;#
b111 o#
b0000000000000000 q#
#116000000
0*
0,
0N
0Y
0]"
0j"
0A#
#117000000
1*
1,
b1111100000001001 G
b0100 L
1N
b1111100000001001 O
b1111100000001001 P
1Y
b1111100000001001 e
b1111100000001001 j
1*"
1]"
1j"
1;#
#118000000
0*
0,
0N
0Y
0]"
0j"
1A#
#119000000
1*
1,
b0101 L
1N
1Y
0*"
1]"
1j"
0;#
#120000000
0*
0,
0N
0Y
0]"
0j"
0A#
#121000000
1*
1,
b0001 B
b0110 L
1N
1Y
1*"
1]"
1j"
1;#
#122000000
0*
0,
0N
0Y
0]"
0j"
1A#
#123000000
1*
1,
b0111 L
1N
1Y
0*"
1]"
1j"
0;#
#124000000
0*
0,
0N
0Y
0]"
0j"
0A#
#125000000
1*
1,
b1000 L
1N
1Y
1*"
1]"
1j"
1;#
#126000000
0*
0,
0N
0Y
0]"
0j"
1A#
#127000000
1*
1,
b0001 L
1N
1Y
0*"
1]"
1j"
0;#
#128000000
0*
0,
0N
0Y
0]"
0j"
0A#
#129000000
b00000010 #
b1111100000001001 $
1*
1,
b00000010 .
b1111100000001001 /
b1111100000001001 =
b00000010 >
b0010 L
b00000010 M
1N
b00000010 W
1Y
1*"
1]"
1j"
1;#
#130000000
0*
0,
0N
0Y
0]"
0j"
1A#
#131000000
1*
1,
b0000000000000001 C
b0000000000000001 E
b0000 K
b0011 L
1N
1Y
b1111100000001010 k
b1111100000001010 l
b00000010 $"
0*"
1]"
1j"
0;#
b0000000000000001 m#
b0000 p#
b0000000000000001 q#
b00000000000000001 r#
